# 3ds Max Wavefront OBJ Exporter v0.97b - (c)2007 guruware
# File Created: 26.01.2010 16:15:38

newmtl Material__34050
	Ns 10.0000
	Ni 1.5000
	d 1.0000
	Tr 0.0000
	Tf 1.0000 1.0000 1.0000 
	illum 2
	Ka 0.5880 0.5880 0.5880
	Kd 0.5880 0.5880 0.5880
	Ks 0.0000 0.0000 0.0000
	Ke 0.0000 0.0000 0.0000
	map_Ka C:\Junk\3DS MAX\Refrence Pictures\old west\Buildings\Saloon_Door.jpg
	map_Kd C:\Junk\3DS MAX\Refrence Pictures\old west\Buildings\Saloon_Door.jpg

newmtl Material__34076
	Ns 10.0000
	Ni 1.5000
	d 1.0000
	Tr 0.0000
	Tf 1.0000 1.0000 1.0000 
	illum 2
	Ka 0.5880 0.5880 0.5880
	Kd 0.5880 0.5880 0.5880
	Ks 0.0000 0.0000 0.0000
	Ke 0.0000 0.0000 0.0000
	map_Ka C:\Documents and Settings\Chris\My Documents\3dsmax\scenes\Western_Town\8.bmp
	map_Kd C:\Documents and Settings\Chris\My Documents\3dsmax\scenes\Western_Town\8.bmp

newmtl Material__34077
	Ns 10.0000
	Ni 1.5000
	d 1.0000
	Tr 0.0000
	Tf 1.0000 1.0000 1.0000 
	illum 2
	Ka 0.5880 0.5880 0.5880
	Kd 0.5880 0.5880 0.5880
	Ks 0.0000 0.0000 0.0000
	Ke 0.0000 0.0000 0.0000
	map_Ka C:\Documents and Settings\Chris\My Documents\3dsmax\scenes\Western_Town\Saloon_sign.jpg
	map_Kd C:\Documents and Settings\Chris\My Documents\3dsmax\scenes\Western_Town\Saloon_sign.jpg

newmtl Material__34102
	Ns 10.0000
	Ni 1.5000
	d 1.0000
	Tr 0.0000
	Tf 1.0000 1.0000 1.0000 
	illum 2
	Ka 0.5880 0.5880 0.5880
	Kd 0.5880 0.5880 0.5880
	Ks 0.0000 0.0000 0.0000
	Ke 0.0000 0.0000 0.0000
	map_Ka C:\Documents and Settings\Chris\My Documents\3dsmax\scenes\Western_Town\SHINGLES.JPG
	map_Kd C:\Documents and Settings\Chris\My Documents\3dsmax\scenes\Western_Town\SHINGLES.JPG
	map_bump C:\Documents and Settings\Chris\My Documents\3dsmax\scenes\Western_Town\SHINGLESB.jpg
	bump C:\Documents and Settings\Chris\My Documents\3dsmax\scenes\Western_Town\SHINGLESB.jpg

newmtl Material__34104
	Ns 10.0000
	Ni 1.5000
	d 1.0000
	Tr 0.0000
	Tf 1.0000 1.0000 1.0000 
	illum 2
	Ka 0.5880 0.5880 0.5880
	Kd 0.5880 0.5880 0.5880
	Ks 0.0000 0.0000 0.0000
	Ke 0.0000 0.0000 0.0000
	map_Ka C:\Documents and Settings\Chris\My Documents\3dsmax\scenes\Western_Town\mod-wood.bmp
	map_Kd C:\Documents and Settings\Chris\My Documents\3dsmax\scenes\Western_Town\mod-wood.bmp
	map_bump C:\Documents and Settings\Chris\My Documents\3dsmax\scenes\Western_Town\mod-wood_B.jpg
	bump C:\Documents and Settings\Chris\My Documents\3dsmax\scenes\Western_Town\mod-wood_B.jpg

newmtl Material__34103
	Ns 10.0000
	Ni 1.5000
	d 1.0000
	Tr 0.0000
	Tf 1.0000 1.0000 1.0000 
	illum 2
	Ka 0.5880 0.5880 0.5880
	Kd 0.5880 0.5880 0.5880
	Ks 0.0000 0.0000 0.0000
	Ke 0.0000 0.0000 0.0000
	map_Ka C:\Documents and Settings\Chris\My Documents\3dsmax\scenes\Western_Town\BOARD08.JPG
	map_Kd C:\Documents and Settings\Chris\My Documents\3dsmax\scenes\Western_Town\BOARD08.JPG
	map_bump C:\Documents and Settings\Chris\My Documents\3dsmax\scenes\Western_Town\BOARD08B.JPG
	bump C:\Documents and Settings\Chris\My Documents\3dsmax\scenes\Western_Town\BOARD08B.JPG

newmtl Material__34220
	Ns 10.0000
	Ni 1.5000
	d 1.0000
	Tr 0.0000
	Tf 1.0000 1.0000 1.0000 
	illum 2
	Ka 0.5880 0.5880 0.5880
	Kd 0.5880 0.5880 0.5880
	Ks 0.0000 0.0000 0.0000
	Ke 0.0000 0.0000 0.0000
	map_Ka C:\Documents and Settings\Chris\My Documents\3dsmax\scenes\Western_Town\wood1a.jpg
	map_Kd C:\Documents and Settings\Chris\My Documents\3dsmax\scenes\Western_Town\wood1a.jpg
	map_bump C:\Documents and Settings\Chris\My Documents\3dsmax\scenes\Western_Town\wood1b.jpg
	bump C:\Documents and Settings\Chris\My Documents\3dsmax\scenes\Western_Town\wood1b.jpg

newmtl Material__34243
	Ns 10.0000
	Ni 1.5000
	d 1.0000
	Tr 0.0000
	Tf 1.0000 1.0000 1.0000 
	illum 2
	Ka 0.5880 0.5880 0.5880
	Kd 0.5880 0.5880 0.5880
	Ks 0.0000 0.0000 0.0000
	Ke 0.0000 0.0000 0.0000
	map_Ka C:\Documents and Settings\Chris\My Documents\3dsmax\scenes\Western_Town\5.jpg
	map_Kd C:\Documents and Settings\Chris\My Documents\3dsmax\scenes\Western_Town\5.jpg

newmtl Material__34256
	Ns 10.0000
	Ni 1.5000
	d 0.5000
	Tr 0.5000
	Tf 0.5000 0.5000 0.5000 
	illum 2
	Ka 0.5880 0.5880 0.5880
	Kd 0.5880 0.5880 0.5880
	Ks 0.0000 0.0000 0.0000
	Ke 0.0000 0.0000 0.0000
	map_Ka C:\Documents and Settings\Chris\My Documents\3dsmax\scenes\Western_Town\window_pane_Grey.bmp
	map_Kd C:\Documents and Settings\Chris\My Documents\3dsmax\scenes\Western_Town\window_pane_Grey.bmp

newmtl Material__34491
	Ns 10.0000
	Ni 1.5000
	d 1.0000
	Tr 0.0000
	Tf 1.0000 1.0000 1.0000 
	illum 2
	Ka 0.5880 0.5880 0.5880
	Kd 0.5880 0.5880 0.5880
	Ks 0.0000 0.0000 0.0000
	Ke 0.0000 0.0000 0.0000
	map_Ka C:\Documents and Settings\Chris\My Documents\3dsmax\scenes\Western_Town\metbgr01.jpg
	map_Kd C:\Documents and Settings\Chris\My Documents\3dsmax\scenes\Western_Town\metbgr01.jpg

newmtl Material__34504
	Ns 10.0000
	Ni 1.5000
	d 1.0000
	Tr 0.0000
	Tf 1.0000 1.0000 1.0000 
	illum 2
	Ka 0.5880 0.5880 0.5880
	Kd 0.5880 0.5880 0.5880
	Ks 0.0000 0.0000 0.0000
	Ke 0.0000 0.0000 0.0000
	map_Ka C:\Documents and Settings\Chris\My Documents\3dsmax\scenes\Western_Town\metbgr01.jpg
	map_Kd C:\Documents and Settings\Chris\My Documents\3dsmax\scenes\Western_Town\metbgr01.jpg

newmtl Material__63737
	Ns 10.0000
	Ni 1.5000
	d 1.0000
	Tr 0.0000
	Tf 1.0000 1.0000 1.0000 
	illum 2
	Ka 0.5880 0.5880 0.5880
	Kd 0.5880 0.5880 0.5880
	Ks 0.0000 0.0000 0.0000
	Ke 0.0000 0.0000 0.0000
	map_Ka C:\Junk\3DS MAX\Textures\Textures & cloth\Cloth_material\TEXTURE2.JPG
	map_Kd C:\Junk\3DS MAX\Textures\Textures & cloth\Cloth_material\TEXTURE2.JPG
